%YAML 1.1
%TAG !u! tag:unity3d.com,2011:
--- !u!1045 &1
EditorBuildSettings:
  m_ObjectHideFlags: 0
  serializedVersion: 2
  m_Scenes:
  - enabled: 1
    path: Assets/Scenes/Menu.unity
    guid: 8460bfc91ebeffc49a9b06c2282923a3
  - enabled: 1
    path: Assets/Scenes/Game.unity
    guid: 69c890e012bd0c2438ae1064418e827f
  - enabled: 1
    path: Assets/Scenes/Game2.unity
    guid: e3c8211f690510847adef55bfe157a6f
  - enabled: 1
    path: Assets/Scenes/Game3.unity
    guid: 187958622f3af7d4f89575456e16a2ec
  - enabled: 1
    path: Assets/Scenes/Win.unity
    guid: ed8ecf540f944f44297fed6dcecdf0e3
